py/com/linco/talisman/controllers/InstitucionalController.class
py/com/linco/talisman/models/ProximoSorteo.class
py/com/linco/talisman/controllers/FaqsController.class
py/com/linco/talisman/controllers/ReglamentoController.class
py/com/linco/talisman/models/RespuestaGenerica.class
py/com/linco/talisman/models/Venta.class
py/com/linco/talisman/models/ConsultaCarton.class
py/com/linco/talisman/models/RespuestaProximoSorteo.class
py/com/linco/talisman/models/usuario/Token.class
py/com/linco/talisman/config/PropertiesConfig.class
py/com/linco/talisman/models/Faq.class
py/com/linco/talisman/services/ServicePagoPersonal.class
py/com/linco/talisman/models/VentaTelefono.class
py/com/linco/talisman/models/RegistroUsuarioV2$FechaNac.class
py/com/linco/talisman/controllers/CartonesUsuario.class
py/com/linco/talisman/config/AppConfig.class
py/com/linco/talisman/config/JugadaHelper.class
py/com/linco/talisman/controllers/ResultadosController.class
py/com/linco/talisman/controllers/BolillasController.class
py/com/linco/talisman/controllers/VentaController.class
py/com/linco/talisman/models/usuario/ResultLogin.class
py/com/linco/talisman/TalismanApplication.class
py/com/linco/talisman/models/usuario/Usuario.class
py/com/linco/talisman/models/EditarCliente.class
py/com/linco/talisman/controllers/RecuperarCartones.class
py/com/linco/talisman/controllers/UsuarioController.class
py/com/linco/talisman/models/LoginUsuario.class
py/com/linco/talisman/controllers/ProximoSorteoController.class
py/com/linco/talisman/models/EditarCliente$FechaNac.class
py/com/linco/talisman/models/Cartones.class
py/com/linco/talisman/models/UsuarioToken.class
py/com/linco/talisman/models/CartonSemana.class
py/com/linco/talisman/controllers/ConsultarCartonController.class
py/com/linco/talisman/models/PremiosPorCarton.class
py/com/linco/talisman/controllers/MainController.class
py/com/linco/talisman/models/RespuestaBancard.class
py/com/linco/talisman/controllers/PremiosCartonController.class
py/com/linco/talisman/config/MySimpleClientHttpRequestFactory.class
py/com/linco/talisman/config/NullHostnameVerifier.class
py/com/linco/talisman/models/AciertoJugada.class
py/com/linco/talisman/models/RegistroUsuarioV2.class
py/com/linco/talisman/models/RegistroUsuario.class
py/com/linco/talisman/models/Bolilla.class
py/com/linco/talisman/repositories/RespuestaBancardRepository.class
py/com/linco/talisman/controllers/CartonSemanaController.class
py/com/linco/talisman/repositories/UsuarioTokenRepository.class
py/com/linco/talisman/models/VentaRespuesta.class
